{
    "title": "ComponentOne ASP.NET Core Report Services",
    "version": "1.0.20202.44444",
    "description": "ComponentOne Report Services for ASP.NET Core",
    "authors": [ "GrapeCity, Inc." ],
    "copyright": "(c) GrapeCity, Inc.. All rights reserved.",
    "language": "en-US",
    "packOptions": {
        "tags": [ "ASP.NET" ],
        "projectUrl": "https://www.grapecity.com/en/componentone",
        "requireLicenseAcceptance": false,
        "licenseUrl": "",
        "iconUrl": "https://gccontent.blob.core.windows.net/gccontent/logos/c1-hex-logo.png"
    },

    "dependencies": {
        "Microsoft.AspNetCore.Mvc": "1.0.0",
        "C1.AspNetCore.Api": "1.0.20202.44444",
        "C1.AspNetCore.Api.Document": "1.0.20202.44444",
        "C1.FlexReport": "4.0.20202.449"
    },

    "frameworks": {
        "net451": {}
    },

    "buildOptions": {
        "embed": [
            "dll.licenses"
        ],

        "compile": [
            "**/*.cs"
        ],

        "define": [ "TRACE", "ASPNETCORE" ],
        "keyFile": "../../../C1.Web.Api/C1.Web.Api.Report/C1.Web.UI.snk",
        "xmlDoc": true
    },

    "configurations": {
        "Debug": {
            "buildOptions": {
                "define": [ "DEBUG" ]
            }
        },
        "Release": {
            "buildOptions": {
                "optimize": true
            }
        },
        "GrapeCity": {
            "buildOptions": {
                "define": [ "GRAPECITY" ],
                "optimize": true
            }
        }
    }
}
