﻿{
  "dependencies": {
    "Microsoft.NETCore.UniversalWindowsPlatform": "5.0.0",
    "Newtonsoft.Json": "7.0.1",
    "WinJS": "4.4.0"
  },
  "frameworks": {
    "uap10.0": {}
  },
  "runtimes": {
    "win10-arm": {},
    "win10-arm-aot": {},
    "win10-x86": {},
    "win10-x86-aot": {},
    "win10-x64": {},
    "win10-x64-aot": {}
  }
}