{
    "title": "ComponentOne ASP.NET Core Web API",
    "version": "1.0.20202.44444",
    "description": "ComponentOne Web API for ASP.NET Core",
    "authors": [ "GrapeCity, Inc." ],
    "copyright": "(c) GrapeCity, Inc.. All rights reserved.",
    "language": "en-US",
    "packOptions": {
        "tags": [ "ASP.NET" ],
        "projectUrl": "https://www.grapecity.com/en/componentone",
        "requireLicenseAcceptance": false,
        "licenseUrl": "",
        "iconUrl": "https://gccontent.blob.core.windows.net/gccontent/logos/c1-hex-logo.png"
    },

    "dependencies": {
        "Microsoft.AspNetCore.Mvc": "1.0.0"
    },

    "frameworks": {
        "net452": {
            "frameworkAssemblies": {
                "System.Drawing": "4.0.0.0"
            }
        }
    },

    "buildOptions": {       
        "compile": [
            "**/*.cs",
            "../../../../Shared/Licensing/*.cs",
            "../../../../Shared/XLicensing/Licensing.Net/ProductLicense.cs",
            "../../../../Shared/Licensing/StandardLicenseProcessor.cs",
            "../../../../Shared/Util/SmartAssembly/SmartAssembly.Attributes.cs"
        ],

        "define": [ "TRACE", "WEB", "ASPNETCORE", "WEBAPI", "NO_ABOUTBOX" ],
        "keyFile": "../../../C1.Web.Api/C1.Web.Api/C1.Web.UI.snk",
        "xmlDoc": true
    },

    "configurations": {
        "Debug": {
            "buildOptions": {
                "define": [ "DEBUG", "WEB", "NO_ABOUTBOX" ]
            }
        },
        "Release": {
            "buildOptions": {
                "optimize": true
            }
        },
        "GrapeCity": {
            "buildOptions": {
                "define": [ "GRAPECITY" ],
                "optimize": true
            },
	     "authors": [ "GrapeCity.JP" ],
	     "copyright": "(c) GrapeCity inc. All rights reserved.",
	     "iconUrl": "https://download2.grapecity.com/logo/c1logo_nuget.png",
	     "projectUrl": "https://www.grapecity.co.jp/developer"
        }
    }
}
