{
  "title": "ComponentOne ASP.NET Core Cloud Services",
  "version": "1.0.20202.44444",
  "description": "ComponentOne Cloud Services for ASP.NET Core",
  "authors": [ "GrapeCity, Inc." ],
  "copyright": "(c) GrapeCity, Inc.. All rights reserved.",
  "language": "en-US",
  "packOptions": {
    "tags": [ "ASP.NET" ],
    "projectUrl": "https://www.grapecity.com/en/componentone",
    "requireLicenseAcceptance": false,
    "licenseUrl": "",
    "iconUrl": "https://gccontent.blob.core.windows.net/gccontent/logos/c1-hex-logo.png"
  },

  "dependencies": {
    "AWSSDK.Core": "3.3.31.4",
    "AWSSDK.S3": "3.3.31.12",
    "C1.AspNetCore.Api": "1.0.20202.44444",
    "Dropbox.Api": "4.9.3",
    "Google.Apis": "1.25.0",
    "Google.Apis.Drive.v3": "1.25.0.862",
    "Microsoft.AspNetCore.Mvc": "1.0.0",
    "Microsoft.AspNetCore.StaticFiles": "1.1.3",
    "WindowsAzure.Storage": "8.7.0"
  },

  "frameworks": {
    "net452": {}
  },

  "buildOptions": {
    "define": [ "TRACE", "ASPNETCORE", "WINFORMS" ],
    "keyFile": "../../../C1.Web.Api/C1.Web.Api.Cloud/C1.Web.UI.snk",
    "xmlDoc": true
  },

  "configurations": {
    "Debug": {
      "buildOptions": {
        "define": [ "DEBUG" ]
      }
    },
    "Release": {
      "buildOptions": {
        "optimize": true
      }
    },
    "GrapeCity": {
      "buildOptions": {
        "define": [ "GRAPECITY" ],
        "optimize": true
      }
    }
  }
}
